[
  {
    "main_genre": "M\u00fczik",
    "sub_genre": "Alternatif",
    "photo_url": "https://www.biletix.com/static/images/live/event/eventimages/ozeratik_biletix.png",
    "event_name": "\u00d6zer Atik ile Kafama Tak\u0131lan \u015eark\u0131lar - Konuk Tolga \u00c7evik",
    "location": "Akasya K\u00fclt\u00fcr Sanat,\u0130stanbul",
    "date": "24 Mar 2020 Sal 20:00",
    "price": "80.00 TL",
    "lat": 41.0014977,
    "lng": 29.0541023
  },
  {
    "main_genre": "M\u00fczik",
    "sub_genre": "Alternatif",
    "photo_url": "https://www.biletix.com/static/images/live/event/eventimages/zeg06-renan.jpg",
    "event_name": "Renan Bilek - Aranjmanlar",
    "location": "Duru Ata\u015fehir Ana Sahne,\u0130stanbul",
    "date": "24 Mar 2020 Sal 20:30",
    "price": "56.50 TL",
    "lat": 40.9830348,
    "lng": 29.0298814
  },
  {
    "main_genre": "M\u00fczik",
    "sub_genre": "Alternatif",
    "photo_url": "https://www.biletix.com/static/images/live/event/eventimages/ceylan_ertem_2020_2.png",
    "event_name": "Ceylan Ertem",
    "location": "Mardin Artuklu \u00dcniversitesi,Mardin",
    "date": "25 Mar 2020 \u00c7ar 19:30",
    "price": "78.50 TL",
    "lat": 37.3352521,
    "lng": 40.7067008
  },
  {
    "main_genre": "M\u00fczik",
    "sub_genre": "Alternatif",
    "photo_url": null,
    "event_name": "Modern Zamanlar Gazinosu - Melike \u015eahin",
    "location": "\u0130zmir Arena,\u0130zmir",
    "date": "25 Mar 2020 \u00c7ar 20:00",
    "price": "1600.00 TL",
    "lat": 38.4655803,
    "lng": 27.1452416
  },
  {
    "main_genre": "M\u00fczik",
    "sub_genre": "Alternatif",
    "photo_url": "https://www.biletix.com/static/images/live/event/eventimages/kamkontakZPO42.png",
    "event_name": "Kontak #1: The Kites ve KAM\"",
    "location": "Babylon,\u0130stanbul",
    "date": "25 Mar 2020 \u00c7ar 20:30",
    "price": "50.00 TL",
    "lat": 41.058255,
    "lng": 28.979834
  },
  {
    "main_genre": "M\u00fczik",
    "sub_genre": "Alternatif",
    "photo_url": "https://www.biletix.com/static/images/live/event/eventimages/Z0A78_Aliozcan.jpg",
    "event_name": "Ali \u00d6zcan",
    "location": "Hayal Kahvesi Emaar ,\u0130stanbul",
    "date": "25 Mar 2020 \u00c7ar 21:00",
    "price": "34.00 TL",
    "lat": 40.996292,
    "lng": 28.9144149
  },
  {
    "main_genre": "M\u00fczik",
    "sub_genre": "Alternatif",
    "photo_url": "https://www.biletix.com/static/images/live/event/eventimages/zpd11c.png",
    "event_name": "%100 M\u00fczik sunar: \u015eark\u0131lar\u0131n Ev Hali",
    "location": "SoldOut Performance Hall,\u0130zmir",
    "date": "aa",
    "price": "",
    "lat": 38.4726135,
    "lng": 27.0751729
  },
  {
    "main_genre": "M\u00fczik",
    "sub_genre": "Dans - Elektronik",
    "photo_url": "https://www.biletix.com/static/images/live/event/eventimages/z9503vernal.png",
    "event_name": "Vernal Music Festival",
    "location": "\u0130zmir Arena,\u0130zmir",
    "date": "04 Nis 2020 Cmt 20:00",
    "price": "90.00 TL",
    "lat": 38.4655803,
    "lng": 27.1452416
  },
  {
    "main_genre": "M\u00fczik",
    "sub_genre": "Dans - Elektronik",
    "photo_url": "https://www.biletix.com/static/images/live/event/eventimages/black-night.png",
    "event_name": "Black Night House Music",
    "location": "Hayal Kahvesi Emaar ,\u0130stanbul",
    "date": "10 Nis 2020 Cum 22:00",
    "price": "56.50 TL",
    "lat": 40.996292,
    "lng": 28.9144149
  },
  {
    "main_genre": "M\u00fczik",
    "sub_genre": "Dans - Elektronik",
    "photo_url": "https://www.biletix.com/static/images/live/event/eventimages/phijama-fest.png",
    "event_name": "Phijama Festival - Kombine",
    "location": "World Of Sunrise - Starlight Resort Hotel,Antalya",
    "date": "aa",
    "price": "1320.00 TL",
    "lat": 36.7244839,
    "lng": 31.5321979
  },
  {
    "main_genre": "M\u00fczik",
    "sub_genre": "Dans - Elektronik",
    "photo_url": "https://www.biletix.com/static/images/live/event/eventimages/dondiablo-ZDOA2.png",
    "event_name": "Don Diablo - 2. G\u00fcn",
    "location": "World Of Sunrise - Starlight Resort Hotel,Antalya",
    "date": "02 May 2020 Cmt 18:00",
    "price": "308.00 TL",
    "lat": 36.7244839,
    "lng": 31.5321979
  },
  {
    "main_genre": "M\u00fczik",
    "sub_genre": "Dans - Elektronik",
    "photo_url": "https://www.biletix.com/static/images/live/event/eventimages/dimitriiiZEB53.png",
    "event_name": "Dimitri Vegas & Like Mike - 7. G\u00fcn",
    "location": "World Of Sunrise - Starlight Resort Hotel,Antalya",
    "date": "07 May 2020 Per 18:00",
    "price": "308.00 TL",
    "lat": 36.7244839,
    "lng": 31.5321979
  },
  {
    "main_genre": "M\u00fczik",
    "sub_genre": "Dans - Elektronik",
    "photo_url": null,
    "event_name": "\u0130nna & \u0130lyas Yal\u00e7\u0131nta\u015f & Simge Sa\u011f\u0131n - Bahar Festivali 2020",
    "location": "Ora Arena,\u0130stanbul",
    "date": "29 May 2020 Cum 17:00",
    "price": "425.00 TL",
    "lat": 41.0426841,
    "lng": 28.886252
  },
  {
    "main_genre": "M\u00fczik",
    "sub_genre": "Dans - Elektronik",
    "photo_url": "https://www.biletix.com/static/images/live/event/eventimages/ZX802_ETGORSELI.jpg",
    "event_name": "Chill-Out Festival Istanbul 2020 presented by %100 Music",
    "location": "Garden Fiesta,\u0130stanbul",
    "date": "06 Haz 2020 Cmt 12:00",
    "price": "345.50 TL",
    "lat": 41.1855556,
    "lng": 29.0147222
  },
  {
    "main_genre": "M\u00fczik",
    "sub_genre": "Dans - Elektronik",
    "photo_url": "https://www.biletix.com/static/images/live/event/eventimages/dimitri_bkm_2020_2.png",
    "event_name": "Dimitri Vegas & Like Mike",
    "location": "K\u00fc\u00e7\u00fck\u00c7iftlik Park,\u0130stanbul",
    "date": "26 Haz 2020 Cum 17:00",
    "price": "525.00 TL",
    "lat": 41.0430556,
    "lng": 28.9930556
  },
  {
    "main_genre": "M\u00fczik",
    "sub_genre": "Dans - Elektronik",
    "photo_url": "https://www.biletix.com/static/images/live/event/eventimages/ZX803_etkgorseli.jpg",
    "event_name": "Electronica Festival \u00c7e\u015fme 2020 Kamp + Kombine + Plaj Presented by %100 Music",
    "location": "Fun Beach,\u0130zmir",
    "date": "aa",
    "price": "378.00 TL",
    "lat": 38.2700353,
    "lng": 26.2581933
  },
  {
    "main_genre": "M\u00fczik",
    "sub_genre": "D\u00fcnya M\u00fczik",
    "photo_url": "https://www.biletix.com/static/images/live/event/eventimages/haleko-bahcesehir.png",
    "event_name": "Haleko ile Meyhane Geceleri",
    "location": "Hayal Kahvesi Bah\u00e7e\u015fehir ,\u0130stanbul",
    "date": "25 Mar 2020 \u00c7ar 21:00",
    "price": "179.00 TL",
    "lat": 41.0660514,
    "lng": 28.6942991
  },
  {
    "main_genre": "M\u00fczik",
    "sub_genre": "D\u00fcnya M\u00fczik",
    "photo_url": "https://www.biletix.com/static/images/live/event/eventimages/balkannZPO34.png",
    "event_name": "Balkan Wedding Party No.4 by Kolektif \u0130stanbul",
    "location": "Babylon,\u0130stanbul",
    "date": "aa",
    "price": "50.00 TL",
    "lat": 41.058255,
    "lng": 28.979834
  },
  {
    "main_genre": "M\u00fczik",
    "sub_genre": "D\u00fcnya M\u00fczik",
    "photo_url": null,
    "event_name": "Livaneli ile Sevdal\u0131m Hayat (\u015eark\u0131lar\u0131 & \u00d6yk\u00fcleri)",
    "location": "Bostanc\u0131 G\u00f6steri Merkezi,\u0130stanbul",
    "date": "aa",
    "price": "247.50 TL",
    "lat": 40.9567833,
    "lng": 29.1022775
  },
  {
    "main_genre": "M\u00fczik",
    "sub_genre": "D\u00fcnya M\u00fczik",
    "photo_url": "https://www.biletix.com/static/images/live/event/eventimages/Y1VAG.png",
    "event_name": "Paul & The Bandits",
    "location": "Hayal Kahvesi Emaar ,\u0130stanbul",
    "date": "03 Nis 2020 Cum 22:00",
    "price": "56.50 TL",
    "lat": 40.996292,
    "lng": 28.9144149
  },
  {
    "main_genre": "M\u00fczik",
    "sub_genre": "D\u00fcnya M\u00fczik",
    "photo_url": "https://www.biletix.com/static/images/live/event/eventimages/YJBDE_etkggggorseli.png",
    "event_name": "Taksim Trio",
    "location": "B\u00fcy\u00fck\u00e7ekmece Belediyesi Atat\u00fcrk K\u00fclt\u00fcr Merkezi,\u0130stanbul",
    "date": "04 Nis 2020 Cmt 20:00",
    "price": "Tam 84.75 TL, \u00d6\u011frenci 74.75 TL",
    "lat": 41.0175902,
    "lng": 28.5924865
  },
  {
    "main_genre": "M\u00fczik",
    "sub_genre": "D\u00fcnya M\u00fczik",
    "photo_url": "https://www.biletix.com/static/images/live/event/eventimages/ZBSAH_etkinlik.png",
    "event_name": "Diskant: \u0130lhan Usmanba\u015f",
    "location": "Borusan M\u00fczik Evi,\u0130stanbul",
    "date": "04 Nis 2020 Cmt 20:30",
    "price": "Tam 55.00 TL \u0130ndirimli 50.00 TL \u00d6\u011frenci 36.00 TL",
    "lat": 41.030355,
    "lng": 28.97541
  },
  {
    "main_genre": "M\u00fczik",
    "sub_genre": "D\u00fcnya M\u00fczik",
    "photo_url": "https://www.biletix.com/static/images/live/event/eventimages/zpo53-bbyln.png",
    "event_name": "G\u00fcncel G\u00fcrsel Art\u0131ktay",
    "location": "Babylon,\u0130stanbul",
    "date": "08 Nis 2020 \u00c7ar 21:30",
    "price": "40.00 TL",
    "lat": 41.058255,
    "lng": 28.979834
  },
  {
    "main_genre": "M\u00fczik",
    "sub_genre": "D\u00fcnya M\u00fczik",
    "photo_url": "https://www.biletix.com/static/images/live/event/eventimages/seldabagcanYGF13.png",
    "event_name": "Selda Ba\u011fcan",
    "location": "\u0130zmir Arena,\u0130zmir",
    "date": "10 Nis 2020 Cum 20:00",
    "price": "",
    "lat": 38.4655803,
    "lng": 27.1452416
  },
  {
    "main_genre": "M\u00fczik",
    "sub_genre": "Heavy Metal",
    "photo_url": "https://www.biletix.com/static/images/live/event/eventimages/murderkingg1.jpg",
    "event_name": "%100 Metal Sunar: Murder King + Razor Inc + Ya\u015fru",
    "location": "%100 Studio,\u0130stanbul",
    "date": "03 Nis 2020 Cum 20:00",
    "price": "39.00 TL",
    "lat": 41.0671688,
    "lng": 29.0174907
  },
  {
    "main_genre": "M\u00fczik",
    "sub_genre": "Heavy Metal",
    "photo_url": "https://www.biletix.com/static/images/live/event/eventimages/Z0XAE_etkgorseli.jpg",
    "event_name": "Koop Oscar Orchestra",
    "location": "%100 Studio,\u0130stanbul",
    "date": "03 Nis 2020 Cum 21:00",
    "price": "77.00 TL",
    "lat": 41.0671688,
    "lng": 29.0174907
  },
  {
    "main_genre": "M\u00fczik",
    "sub_genre": "Heavy Metal",
    "photo_url": "https://www.biletix.com/static/images/live/event/eventimages/MGLA-Z0XAJ.png",
    "event_name": "MGLA",
    "location": "IF Performance Hall Be\u015fikta\u015f,\u0130stanbul",
    "date": "aa",
    "price": "115.00 TL",
    "lat": 41.044047,
    "lng": 29.006436
  },
  {
    "main_genre": "M\u00fczik",
    "sub_genre": "Heavy Metal",
    "photo_url": "https://www.biletix.com/static/images/live/event/eventimages/murderking.png",
    "event_name": "Murder King",
    "location": "Shelter,Ankara",
    "date": "17 Nis 2020 Cum 22:00",
    "price": "33.75 TL",
    "lat": 39.909625,
    "lng": 32.8585009
  },
  {
    "main_genre": "M\u00fczik",
    "sub_genre": "Heavy Metal",
    "photo_url": "https://www.biletix.com/static/images/live/event/eventimages/Z0XAD_etkgorseli.jpg",
    "event_name": "Green Carnation",
    "location": "%100 Studio,\u0130stanbul",
    "date": "aa",
    "price": "99.00 TL",
    "lat": 41.0671688,
    "lng": 29.0174907
  },
  {
    "main_genre": "M\u00fczik",
    "sub_genre": "Heavy Metal",
    "photo_url": "https://www.biletix.com/static/images/live/event/eventimages/soen-244692826-gorsel.png",
    "event_name": "Soen",
    "location": "SoldOut Performance Hall,\u0130zmir",
    "date": "10 Haz 2020 \u00c7ar 21:30",
    "price": "115.00 TL",
    "lat": 38.4726135,
    "lng": 27.0751729
  },
  {
    "main_genre": "M\u00fczik",
    "sub_genre": "Heavy Metal",
    "photo_url": "https://www.biletix.com/static/images/live/event/eventimages/soen-244692826-gorsel.png",
    "event_name": "Soen",
    "location": "Jolly Joker Ankara,Ankara",
    "date": "11 Haz 2020 Per 21:30",
    "price": "140.00 TL",
    "lat": 39.914617,
    "lng": 32.8581839
  },
  {
    "main_genre": "M\u00fczik",
    "sub_genre": "Heavy Metal",
    "photo_url": "https://www.biletix.com/static/images/live/event/eventimages/soen-244692826-gorsel.png",
    "event_name": "Soen",
    "location": "K\u00fc\u00e7\u00fck\u00c7iftlik Park,\u0130stanbul",
    "date": "12 Haz 2020 Cum 20:00",
    "price": "125.00 TL",
    "lat": 41.0430556,
    "lng": 28.9930556
  },
  {
    "main_genre": "M\u00fczik",
    "sub_genre": "Caz",
    "photo_url": "https://www.biletix.com/static/images/live/event/eventimages/anilselilelZPO54.png",
    "event_name": "Y\u0131l Boyu Caz: An\u0131l \u015eall\u0131el \"166 Days\"",
    "location": "Babylon,\u0130stanbul",
    "date": "24 Mar 2020 Sal 21:30",
    "price": "50.00 TL",
    "lat": 41.058255,
    "lng": 28.979834
  },
  {
    "main_genre": "M\u00fczik",
    "sub_genre": "Caz",
    "photo_url": "https://www.biletix.com/static/images/live/event/eventimages/cabincrew_etk.gif",
    "event_name": "Otis, \u00d6ktem, Futaci Trio - \u0130kiz Cabin Crew",
    "location": "Borusan M\u00fczik Evi,\u0130stanbul",
    "date": "27 Mar 2020 Cum 20:30",
    "price": "Tam 69.30 TL \u0130ndirimli 63.00 TL",
    "lat": 41.030355,
    "lng": 28.97541
  },
  {
    "main_genre": "M\u00fczik",
    "sub_genre": "Caz",
    "photo_url": "https://www.biletix.com/static/images/live/event/eventimages/nesetruacan_duygutarhan.png",
    "event_name": "Ne\u015fet Ruacan Band Ft. Duygu Tarhan & \u015eenova \u00dclker",
    "location": "Living Room,\u0130stanbul",
    "date": "27 Mar 2020 Cum 22:30",
    "price": "90.50 TL",
    "lat": 40.9880478,
    "lng": 29.0270048
  },
  {
    "main_genre": "M\u00fczik",
    "sub_genre": "Caz",
    "photo_url": "https://www.biletix.com/static/images/live/event/eventimages/ZZE07_gorsel.png",
    "event_name": "\"T\u00fcrk\u00fc\"den \"Caz\"a",
    "location": "G\u00f6kyay Vakf\u0131 Satran\u00e7 M\u00fczesi,Ankara",
    "date": "28 Mar 2020 Cmt 18:00",
    "price": "56.50 TL",
    "lat": 39.9348615,
    "lng": 32.8634689
  },
  {
    "main_genre": "M\u00fczik",
    "sub_genre": "Caz",
    "photo_url": "https://www.biletix.com/static/images/live/event/eventimages/karsu-kirmizii.png",
    "event_name": "Karsu",
    "location": "Kocaeli Sabanc\u0131 K\u00fclt\u00fcr Merkezi,Kocaeli",
    "date": "01 Nis 2020 \u00c7ar 20:00",
    "price": "150.00 TL",
    "lat": 40.7622872,
    "lng": 29.94942159999999
  },
  {
    "main_genre": "M\u00fczik",
    "sub_genre": "Caz",
    "photo_url": "https://www.biletix.com/static/images/live/event/eventimages/zld24-ksahne.png",
    "event_name": "Hakan Kur\u015fun A\u015f\u0131klar D\u00f6rtl\u00fcs\u00fc",
    "location": "Kad\u0131k\u00f6ySahne,\u0130stanbul",
    "date": "01 Nis 2020 \u00c7ar 21:30",
    "price": "34.00 TL",
    "lat": 40.9903129,
    "lng": 29.027752
  },
  {
    "main_genre": "M\u00fczik",
    "sub_genre": "Caz",
    "photo_url": "https://www.biletix.com/static/images/live/event/eventimages/ZSV36_gorsel.png",
    "event_name": "Jehan Barbur",
    "location": "IF Performance Hall Ata\u015fehir,\u0130stanbul",
    "date": "01 Nis 2020 \u00c7ar 22:30",
    "price": "55.00 TL",
    "lat": 40.9941663,
    "lng": 29.1102139
  },
  {
    "main_genre": "M\u00fczik",
    "sub_genre": "Caz",
    "photo_url": null,
    "event_name": "Hindi Zahra",
    "location": "Sel\u00e7uklu Kongre Merkezi Anadolu Oditoryum,Konya",
    "date": "08 Nis 2020 \u00c7ar 20:30",
    "price": "150.00 TL",
    "lat": 37.9298166,
    "lng": 32.5094611
  },
  {
    "main_genre": "M\u00fczik",
    "sub_genre": "Klasik",
    "photo_url": "https://www.biletix.com/static/images/live/event/eventimages/yildizinyildizlari-YFJ40.png",
    "event_name": "\u00c7i\u011fdem Erken ve Orkestras\u0131 Y\u0131ld\u0131z'\u0131n Y\u0131ld\u0131zlar\u0131",
    "location": "ENKA Oditoryumu ,\u0130stanbul",
    "date": "24 Mar 2020 Sal 20:30",
    "price": "Tam 89.50 \u00d6\u011frenci 59.50",
    "lat": 41.1114466,
    "lng": 29.037751
  },
  {
    "main_genre": "M\u00fczik",
    "sub_genre": "Klasik",
    "photo_url": "https://www.biletix.com/static/images/live/event/eventimages/eskisehirZBC15.png",
    "event_name": "Eski\u015fehir Senfoni Orkestras\u0131",
    "location": "B\u00fcy\u00fck\u00e7ekmece Belediyesi Atat\u00fcrk K\u00fclt\u00fcr Merkezi,\u0130stanbul",
    "date": "25 Mar 2020 \u00c7ar 20:00",
    "price": "Tam 51.00 TL, \u00d6\u011frenci 41.00 TL",
    "lat": 41.0175902,
    "lng": 28.5924865
  },
  {
    "main_genre": "M\u00fczik",
    "sub_genre": "Klasik",
    "photo_url": null,
    "event_name": "O/Modernt Chamber Orchestra",
    "location": "CRR Konser Salonu,\u0130stanbul",
    "date": "25 Mar 2020 \u00c7ar 20:00",
    "price": "86.50 TL",
    "lat": 41.0482145,
    "lng": 28.9902806
  },
  {
    "main_genre": "M\u00fczik",
    "sub_genre": "Klasik",
    "photo_url": "https://www.biletix.com/static/images/live/event/eventimages/andrijaZFU04.png",
    "event_name": "Andrija Mincic ve Cellopianoduo",
    "location": "Sabanc\u0131 \u00dcniversitesi G\u00f6steri Merkezi,\u0130stanbul",
    "date": "26 Mar 2020 Per 20:00",
    "price": "Tam 35.00 TL \u00d6\u011frenci 30.00 TL",
    "lat": 40.8928831,
    "lng": 29.3748667
  },
  {
    "main_genre": "M\u00fczik",
    "sub_genre": "Klasik",
    "photo_url": null,
    "event_name": "B\u0130FO & Pablo Ferrandez",
    "location": "L\u00fctfi K\u0131rdar Anadolu Auditorium,\u0130stanbul",
    "date": "26 Mar 2020 Per 20:00",
    "price": "190.00 TL",
    "lat": 41.0473427,
    "lng": 28.9895476
  },
  {
    "main_genre": "M\u00fczik",
    "sub_genre": "Klasik",
    "photo_url": null,
    "event_name": "Lepidus Ensemble",
    "location": "\u015eerefiye Sarn\u0131c\u0131 ,\u0130stanbul",
    "date": "28 Mar 2020 Cmt 17:30",
    "price": "96.50 TL",
    "lat": 41.0072734,
    "lng": 28.9724617
  },
  {
    "main_genre": "M\u00fczik",
    "sub_genre": "Klasik",
    "photo_url": "https://www.biletix.com/static/images/live/event/eventimages/tuluyhann3.png",
    "event_name": "Tuluyhan U\u011furlu Meryem Ana Kilisesi Konseri",
    "location": "Meryem Ana Kilisesi,\u0130stanbul",
    "date": "29 Mar 2020 Paz 17:00",
    "price": "112.00 TL",
    "lat": 41.0386934,
    "lng": 28.9428138
  },
  {
    "main_genre": "M\u00fczik",
    "sub_genre": "Latin - Tango",
    "photo_url": null,
    "event_name": "Jos\u00e9 Huertas Flamenko Toplulu\u011fu",
    "location": "CRR Konser Salonu,\u0130stanbul",
    "date": "24 Mar 2020 Sal 20:00",
    "price": "136.50 TL",
    "lat": 41.0482145,
    "lng": 28.9902806
  },
  {
    "main_genre": "M\u00fczik",
    "sub_genre": "Latin - Tango",
    "photo_url": "https://www.biletix.com/static/images/live/event/eventimages/salsa-emaar.png",
    "event_name": "Salsa",
    "location": "Hayal Kahvesi Emaar ,\u0130stanbul",
    "date": "24 Mar 2020 Sal 21:00",
    "price": "39.50 TL",
    "lat": 40.996292,
    "lng": 28.9144149
  },
  {
    "main_genre": "M\u00fczik",
    "sub_genre": "Latin - Tango",
    "photo_url": "https://www.biletix.com/static/images/live/event/eventimages/tango-emaar.png",
    "event_name": "Tango",
    "location": "Hayal Kahvesi Emaar ,\u0130stanbul",
    "date": "30 Mar 2020 Pzt 21:00",
    "price": "39.50 TL",
    "lat": 40.996292,
    "lng": 28.9144149
  },
  {
    "main_genre": "M\u00fczik",
    "sub_genre": "Latin - Tango",
    "photo_url": "https://www.biletix.com/static/images/live/event/eventimages/salsa-emaar.png",
    "event_name": "Salsa",
    "location": "Hayal Kahvesi Emaar ,\u0130stanbul",
    "date": "31 Mar 2020 Sal 21:00",
    "price": "39.50 TL",
    "lat": 40.996292,
    "lng": 28.9144149
  },
  {
    "main_genre": "M\u00fczik",
    "sub_genre": "Latin - Tango",
    "photo_url": "https://www.biletix.com/static/images/live/event/eventimages/tango-emaar.png",
    "event_name": "Tango",
    "location": "Hayal Kahvesi Emaar ,\u0130stanbul",
    "date": "aa",
    "price": "39.50 TL",
    "lat": 40.996292,
    "lng": 28.9144149
  },
  {
    "main_genre": "M\u00fczik",
    "sub_genre": "Latin - Tango",
    "photo_url": "https://www.biletix.com/static/images/live/event/eventimages/salsa-emaar.png",
    "event_name": "Salsa",
    "location": "Hayal Kahvesi Emaar ,\u0130stanbul",
    "date": "aa",
    "price": "39.50 TL",
    "lat": 40.996292,
    "lng": 28.9144149
  },
  {
    "main_genre": "M\u00fczik",
    "sub_genre": "Latin - Tango",
    "photo_url": "https://www.biletix.com/static/images/live/event/eventimages/z0ac2-emaar.png",
    "event_name": "Salsa - Combo Latino",
    "location": "Hayal Kahvesi Emaar ,\u0130stanbul",
    "date": "11 Nis 2020 Cmt 22:00",
    "price": "56.50 TL",
    "lat": 40.996292,
    "lng": 28.9144149
  },
  {
    "main_genre": "M\u00fczik",
    "sub_genre": "Latin - Tango",
    "photo_url": "https://www.biletix.com/static/images/live/event/eventimages/salsa-emaar.png",
    "event_name": "Salsa",
    "location": "Hayal Kahvesi Emaar ,\u0130stanbul",
    "date": "25 Nis 2020 Cmt 22:00",
    "price": "34.00 TL",
    "lat": 40.996292,
    "lng": 28.9144149
  },
  {
    "main_genre": "M\u00fczik",
    "sub_genre": "Latin - Tango",
    "photo_url": "https://www.biletix.com/static/images/live/event/eventimages/ayhansicimoglu-ZIPO9.png",
    "event_name": "Ayhan Sicimo\u011flu & Latin All Stars",
    "location": "Bostanl\u0131 Suat Ta\u015fer Tiyatrosu,\u0130zmir",
    "date": "11 May 2020 Pzt 20:30",
    "price": "101.75 TL",
    "lat": 38.4543114,
    "lng": 27.099699
  },
  {
    "main_genre": "M\u00fczik",
    "sub_genre": "Parti",
    "photo_url": "https://www.biletix.com/static/images/live/event/eventimages/ZNQ66_gorsel.png",
    "event_name": "Wonderland Spring Party",
    "location": "IF Performance Hall Be\u015fikta\u015f,\u0130stanbul",
    "date": "25 Mar 2020 \u00c7ar 20:00",
    "price": "66.00 TL + 1 \u0130\u00e7ecek + 1 Kek",
    "lat": 41.044047,
    "lng": 29.006436
  },
  {
    "main_genre": "M\u00fczik",
    "sub_genre": "Parti",
    "photo_url": "https://www.biletix.com/static/images/live/event/eventimages/YCGNA_etkinlik.jpg",
    "event_name": "Kad\u0131nlar Meyhanesi",
    "location": "Qubbe Bomonti,\u0130stanbul",
    "date": "25 Mar 2020 \u00c7ar 20:00",
    "price": "224.00 TL",
    "lat": 41.064161,
    "lng": 29.009901
  },
  {
    "main_genre": "M\u00fczik",
    "sub_genre": "Parti",
    "photo_url": "https://www.biletix.com/static/images/live/event/eventimages/masha-bartinfest.jpg",
    "event_name": "Masha Bart\u0131n Gen\u00e7lik Festivali - Kombine",
    "location": "Balamba Tabiat Park\u0131 Konser Alan\u0131 ,Bart\u0131n",
    "date": "aa",
    "price": "101.00 TL",
    "lat": 41.62735380000001,
    "lng": 32.3623335
  },
  {
    "main_genre": "M\u00fczik",
    "sub_genre": "Parti",
    "photo_url": "https://www.biletix.com/static/images/live/event/eventimages/masha-bartinfest.jpg",
    "event_name": "Masha Bart\u0131n Gen\u00e7lik Festivali",
    "location": "Balamba Tabiat Park\u0131 Konser Alan\u0131 ,Bart\u0131n",
    "date": "aa",
    "price": "62.00 TL",
    "lat": 41.62735380000001,
    "lng": 32.3623335
  },
  {
    "main_genre": "M\u00fczik",
    "sub_genre": "Parti",
    "photo_url": "https://www.biletix.com/static/images/live/event/eventimages/YFFAN_gorsel.png",
    "event_name": "90'lar Partisi",
    "location": "IF Performance Hall,Ankara",
    "date": "27 Mar 2020 Cum 21:00",
    "price": "38.50 TL",
    "lat": 39.9116468,
    "lng": 32.8560768
  },
  {
    "main_genre": "M\u00fczik",
    "sub_genre": "Parti",
    "photo_url": "https://www.biletix.com/static/images/live/event/eventimages/Ali_Tas_90_lar.png",
    "event_name": "DJ Ali Ta\u015f \u0130le 90'lar T\u00fcrk\u00e7e Pop",
    "location": "Hayal Kahvesi Emaar ,\u0130stanbul",
    "date": "27 Mar 2020 Cum 22:00",
    "price": "56.50 TL",
    "lat": 40.996292,
    "lng": 28.9144149
  },
  {
    "main_genre": "M\u00fczik",
    "sub_genre": "Parti",
    "photo_url": "https://www.biletix.com/static/images/live/event/eventimages/masha-bartinfest.jpg",
    "event_name": "Masha Bart\u0131n Gen\u00e7lik Festivali",
    "location": "Balamba Tabiat Park\u0131 Konser Alan\u0131 ,Bart\u0131n",
    "date": "aa",
    "price": "62.00 TL",
    "lat": 41.62735380000001,
    "lng": 32.3623335
  },
  {
    "main_genre": "M\u00fczik",
    "sub_genre": "Parti",
    "photo_url": "https://www.biletix.com/static/images/live/event/eventimages/Z2G04_gorsel.png",
    "event_name": "Amsterdamn Night",
    "location": "IF Performance Hall - Eski\u015fehir,Eski\u015fehir",
    "date": "28 Mar 2020 Cmt 21:00",
    "price": "49.50 TL + 1 \u0130\u00e7ecek + 1 Kek + 1 Kokteyl",
    "lat": 39.784332,
    "lng": 30.4998543
  },
  {
    "main_genre": "M\u00fczik",
    "sub_genre": "Pop",
    "photo_url": null,
    "event_name": "Koray Avc\u0131",
    "location": "Osmangazi Salonu,Bursa",
    "date": "24 Mar 2020 Sal 21:00",
    "price": "187.00 TL",
    "lat": 40.1996394,
    "lng": 29.0523779
  },
  {
    "main_genre": "M\u00fczik",
    "sub_genre": "Pop",
    "photo_url": "https://www.biletix.com/static/images/live/event/eventimages/mehmetterdemUR373.png",
    "event_name": "Mehmet Erdem",
    "location": "Fly Bistro Edirne,Edirne",
    "date": "25 Mar 2020 \u00c7ar 20:00",
    "price": "",
    "lat": 41.6669594,
    "lng": 26.5761873
  },
  {
    "main_genre": "M\u00fczik",
    "sub_genre": "Pop",
    "photo_url": null,
    "event_name": "Hakan Altun",
    "location": "Karadeniz Teknik \u00dcniversitesi AKM Salonu,Trabzon",
    "date": "aa",
    "price": "201.50 TL",
    "lat": 40.9982928,
    "lng": 39.7711815
  },
  {
    "main_genre": "M\u00fczik",
    "sub_genre": "Pop",
    "photo_url": "https://www.biletix.com/static/images/live/event/eventimages/mansurarkZAM06.png",
    "event_name": "DJ Hakan K\u00fcf\u00fcnd\u00fcr - Mansur Ark 90'lar T\u00fcrk\u00e7e Pop Party",
    "location": "Holly Stone Performance Hall,Antalya",
    "date": "25 Mar 2020 \u00c7ar 20:30",
    "price": "56.50 TL",
    "lat": 36.8849166,
    "lng": 30.7044053
  },
  {
    "main_genre": "M\u00fczik",
    "sub_genre": "Pop",
    "photo_url": "https://www.biletix.com/static/images/live/event/eventimages/celik-Z7R10.png",
    "event_name": "\u00c7elik",
    "location": "Hayal Kahvesi Manisa,Manisa",
    "date": "25 Mar 2020 \u00c7ar 20:30",
    "price": "50.00 TL",
    "lat": 38.6205648,
    "lng": 27.4336137
  },
  {
    "main_genre": "M\u00fczik",
    "sub_genre": "Pop",
    "photo_url": "https://www.biletix.com/static/images/live/event/eventimages/barcelona-gipsy.png",
    "event_name": "Barcelona Gypsy",
    "location": "Holly Stone Performance Hall,Antalya",
    "date": "25 Mar 2020 \u00c7ar 20:30",
    "price": "70.00 TL",
    "lat": 36.8849166,
    "lng": 30.7044053
  },
  {
    "main_genre": "M\u00fczik",
    "sub_genre": "Pop",
    "photo_url": "https://www.biletix.com/static/images/live/event/eventimages/645ankaraetkinlik_02.png",
    "event_name": "Cihan M\u00fcrtezao\u011flu",
    "location": "Big Yellow Taxi Benzin,Samsun",
    "date": "25 Mar 2020 \u00c7ar 21:00",
    "price": "",
    "lat": 41.3417249,
    "lng": 36.2624974
  },
  {
    "main_genre": "M\u00fczik",
    "sub_genre": "Rap - HipHop",
    "photo_url": "https://www.biletix.com/static/images/live/event/eventimages/YXW10.jpg",
    "event_name": "Patron & Ati242",
    "location": "IF Performance Hall - Eski\u015fehir,Eski\u015fehir",
    "date": "25 Mar 2020 \u00c7ar 22:00",
    "price": "56.50 TL",
    "lat": 39.784332,
    "lng": 30.4998543
  },
  {
    "main_genre": "M\u00fczik",
    "sub_genre": "Rap - HipHop",
    "photo_url": "https://www.biletix.com/static/images/live/event/eventimages/ZNQ02_gorsel.png",
    "event_name": "Ozbi Konuk Sanat\u00e7\u0131: G\u00fclce Duru",
    "location": "6:45 KK Bolu,Bolu",
    "date": "25 Mar 2020 \u00c7ar 22:30",
    "price": "44.00 TL",
    "lat": 40.732541,
    "lng": 31.608209
  },
  {
    "main_genre": "M\u00fczik",
    "sub_genre": "Rap - HipHop",
    "photo_url": "https://www.biletix.com/static/images/live/event/eventimages/tepki1.png",
    "event_name": "Tepki",
    "location": "IF Performance Hall Be\u015fikta\u015f,\u0130stanbul",
    "date": "26 Mar 2020 Per 20:00",
    "price": "45.00 TL",
    "lat": 41.044047,
    "lng": 29.006436
  },
  {
    "main_genre": "M\u00fczik",
    "sub_genre": "Rap - HipHop",
    "photo_url": "https://www.biletix.com/static/images/live/event/eventimages/sagopakajmer2018.png",
    "event_name": "Sagopa Kajmer",
    "location": "Artvin \u00c7oruh \u00dcniversitesi Nihat G\u00f6kyi\u011fit Kongre ve K\u00fclt\u00fcr Merkezi,Artvin",
    "date": "27 Mar 2020 Cum 19:00",
    "price": "67.50 TL",
    "lat": 41.1847797,
    "lng": 41.834329
  },
  {
    "main_genre": "M\u00fczik",
    "sub_genre": "Rap - HipHop",
    "photo_url": "https://www.biletix.com/static/images/live/event/eventimages/ZNQ53_02_gorsel.png",
    "event_name": "Hood Party - Ege \u00c7ubuk\u00e7u - Aga B - Kamufle34",
    "location": "IF Performance Hall Be\u015fikta\u015f,\u0130stanbul",
    "date": "27 Mar 2020 Cum 22:00",
    "price": "49.50 TL",
    "lat": 41.044047,
    "lng": 29.006436
  },
  {
    "main_genre": "M\u00fczik",
    "sub_genre": "Rap - HipHop",
    "photo_url": "https://www.biletix.com/static/images/live/event/eventimages/normenderUR377.png",
    "event_name": "Norm Ender",
    "location": "Club Inferno Bursa,Bursa",
    "date": "27 Mar 2020 Cum 22:00",
    "price": "",
    "lat": 40.210643,
    "lng": 28.9996677
  },
  {
    "main_genre": "M\u00fczik",
    "sub_genre": "Rock",
    "photo_url": "https://www.biletix.com/static/images/live/event/eventimages/zlk01_mavigri2.png",
    "event_name": "Mavi Gri & \u00c7a\u011fan \u015eeng\u00fcl",
    "location": "Dorock XL Kad\u0131k\u00f6y,\u0130stanbul",
    "date": "24 Mar 2020 Sal 22:00",
    "price": "30.00 TL",
    "lat": 40.9897363,
    "lng": 29.0228835
  },
  {
    "main_genre": "M\u00fczik",
    "sub_genre": "Rock",
    "photo_url": null,
    "event_name": "Haluk Levent",
    "location": "Jolly Joker Bursa ,Bursa",
    "date": "25 Mar 2020 \u00c7ar 21:00",
    "price": "",
    "lat": 40.226244,
    "lng": 28.970338
  },
  {
    "main_genre": "M\u00fczik",
    "sub_genre": "Rock",
    "photo_url": "https://www.biletix.com/static/images/live/event/eventimages/ZNQ51_gorsel.png",
    "event_name": "Ya\u015fl\u0131 Amca",
    "location": "IF Performance Hall,Ankara",
    "date": "25 Mar 2020 \u00c7ar 21:00",
    "price": "38.50 TL",
    "lat": 39.9116468,
    "lng": 32.8560768
  },
  {
    "main_genre": "M\u00fczik",
    "sub_genre": "Rock",
    "photo_url": null,
    "event_name": "Kurtalan Ekspres",
    "location": "Beyrut Performans,\u0130stanbul",
    "date": "25 Mar 2020 \u00c7ar 23:00",
    "price": "",
    "lat": 40.89390179999999,
    "lng": 29.1714992
  },
  {
    "main_genre": "M\u00fczik",
    "sub_genre": "Rock",
    "photo_url": "https://www.biletix.com/static/images/live/event/eventimages/yukseksadakat-ZSK70.png",
    "event_name": "Y\u00fcksek Sadakat & Beylikd\u00fcz\u00fc Gen\u00e7lik Senfoni Orkestras\u0131",
    "location": "Beylikd\u00fcz\u00fc Atat\u00fcrk K\u00fclt\u00fcr ve Sanat Merkezi (BAKSM),\u0130stanbul",
    "date": "26 Mar 2020 Per 20:30",
    "price": "88.00 TL",
    "lat": 41.0022894,
    "lng": 28.6421979
  },
  {
    "main_genre": "M\u00fczik",
    "sub_genre": "Rock",
    "photo_url": "https://www.biletix.com/static/images/live/event/eventimages/zl694.png",
    "event_name": "Duman",
    "location": "Diyarbak\u0131r B\u00fcy\u00fck\u015fehir Belediyesi K\u00fclt\u00fcr ve Kongre Merkezi Konferans Salonu,Diyarbak\u0131r",
    "date": "26 Mar 2020 Per 20:30",
    "price": "121.00 TL",
    "lat": 37.91207929999999,
    "lng": 40.2245523
  },
  {
    "main_genre": "M\u00fczik",
    "sub_genre": "Rock",
    "photo_url": "https://www.biletix.com/static/images/live/event/eventimages/aylinaslimZPO33.png",
    "event_name": "Aylin Asl\u0131m Mavi Oda \u015eark\u0131lar\u0131",
    "location": "Babylon,\u0130stanbul",
    "date": "26 Mar 2020 Per 21:30",
    "price": "50.00 TL",
    "lat": 41.058255,
    "lng": 28.979834
  },
  {
    "main_genre": "M\u00fczik",
    "sub_genre": "T\u00fcrk Sanat - Halk M\u00fczi\u011fi",
    "photo_url": "https://www.biletix.com/static/images/live/event/eventimages/ykbd8g.png",
    "event_name": "Edip Akbayram",
    "location": "MEB \u015eura Salonu,Ankara",
    "date": "24 Mar 2020 Sal 20:00",
    "price": "168.00 TL",
    "lat": 39.9360228,
    "lng": 32.8251797
  },
  {
    "main_genre": "M\u00fczik",
    "sub_genre": "T\u00fcrk Sanat - Halk M\u00fczi\u011fi",
    "photo_url": "https://www.biletix.com/static/images/live/event/eventimages/erkanogur-ismail-yazisiz.jpg",
    "event_name": "Erkan O\u011fur - \u0130smail Hakk\u0131 Demircio\u011flu",
    "location": "Kocaeli Sabanc\u0131 K\u00fclt\u00fcr Merkezi,Kocaeli",
    "date": "24 Mar 2020 Sal 20:00",
    "price": "Tam 79.25 TL, \u00d6\u011frenci 69.25 TL",
    "lat": 40.7622872,
    "lng": 29.94942159999999
  },
  {
    "main_genre": "M\u00fczik",
    "sub_genre": "T\u00fcrk Sanat - Halk M\u00fczi\u011fi",
    "photo_url": "https://www.biletix.com/static/images/live/event/eventimages/nurettin_rencber1.jpg",
    "event_name": "Nurettin Ren\u00e7ber",
    "location": "Kad\u0131k\u00f6y Halk E\u011fitim Merkezi,\u0130stanbul",
    "date": "24 Mar 2020 Sal 20:30",
    "price": "66.00 TL",
    "lat": 40.9868014,
    "lng": 29.0288062
  },
  {
    "main_genre": "M\u00fczik",
    "sub_genre": "T\u00fcrk Sanat - Halk M\u00fczi\u011fi",
    "photo_url": "https://www.biletix.com/static/images/live/event/eventimages/ucnefess.JPG",
    "event_name": "Tolga Sa\u011f & Cengiz \u00d6zkan & Muharrem Temiz",
    "location": "Caddebostan K\u00fclt\u00fcr Merkezi B\u00fcy\u00fck Salon,\u0130stanbul",
    "date": "25 Mar 2020 \u00c7ar 20:30",
    "price": "65.00 TL",
    "lat": 40.9673487,
    "lng": 29.0646525
  },
  {
    "main_genre": "M\u00fczik",
    "sub_genre": "T\u00fcrk Sanat - Halk M\u00fczi\u011fi",
    "photo_url": null,
    "event_name": "B\u00fclent Ersoy",
    "location": "Anemon Otel Denizli,Denizli",
    "date": "aa",
    "price": "1650.00 TL",
    "lat": 37.8279796,
    "lng": 29.0492204
  },
  {
    "main_genre": "M\u00fczik",
    "sub_genre": "T\u00fcrk Sanat - Halk M\u00fczi\u011fi",
    "photo_url": null,
    "event_name": "Ayta S\u00f6zeri Gazinosu",
    "location": "Hotel SU,Antalya",
    "date": "27 Mar 2020 Cum 20:00",
    "price": null,
    "lat": 36.8784872,
    "lng": 30.6622514
  },
  {
    "main_genre": "M\u00fczik",
    "sub_genre": "T\u00fcrk Sanat - Halk M\u00fczi\u011fi",
    "photo_url": "https://www.biletix.com/static/images/live/event/eventimages/zl683.png",
    "event_name": "Erol Evgin",
    "location": "Diyarbak\u0131r B\u00fcy\u00fck\u015fehir Belediyesi K\u00fclt\u00fcr ve Kongre Merkezi Konferans Salonu,Diyarbak\u0131r",
    "date": "27 Mar 2020 Cum 20:30",
    "price": "137.50 TL",
    "lat": 37.91207929999999,
    "lng": 40.2245523
  },
  {
    "main_genre": "M\u00fczik",
    "sub_genre": "T\u00fcrk Sanat - Halk M\u00fczi\u011fi",
    "photo_url": "https://www.biletix.com/static/images/live/event/eventimages/ucnefess.JPG",
    "event_name": "Tolga Sa\u011f & Cengiz \u00d6zkan & Muharrem Temiz",
    "location": "MEB \u015eura Salonu,Ankara",
    "date": "27 Mar 2020 Cum 20:30",
    "price": "77.00 TL",
    "lat": 39.9360228,
    "lng": 32.8251797
  },
  {
    "main_genre": "M\u00fczik",
    "sub_genre": "Di\u011fer M\u00fczik",
    "photo_url": "https://www.biletix.com/static/images/live/event/eventimages/ZFF62_gorsel.png",
    "event_name": "Fuckup Nights Vol.29",
    "location": "IF Performance Hall,Ankara",
    "date": "24 Mar 2020 Sal 19:00",
    "price": "33.00 TL",
    "lat": 39.9116468,
    "lng": 32.8560768
  },
  {
    "main_genre": "M\u00fczik",
    "sub_genre": "Di\u011fer M\u00fczik",
    "photo_url": "https://www.biletix.com/static/images/live/event/eventimages/leilasahar-ZAZ07.png",
    "event_name": "Leila Forouhar & Sahar - Live in Antalya",
    "location": "Chapito,Antalya",
    "date": "24 Mar 2020 Sal 20:00",
    "price": "600.00 TL",
    "lat": 36.8808494,
    "lng": 31.0020071
  },
  {
    "main_genre": "M\u00fczik",
    "sub_genre": "Di\u011fer M\u00fczik",
    "photo_url": "https://www.biletix.com/static/images/live/event/eventimages/marsis-ZKV34.png",
    "event_name": "Marsis - Come Back",
    "location": "IF Performance Hall Be\u015fikta\u015f,\u0130stanbul",
    "date": "24 Mar 2020 Sal 22:00",
    "price": "45.25 TL",
    "lat": 41.044047,
    "lng": 29.006436
  },
  {
    "main_genre": "M\u00fczik",
    "sub_genre": "Di\u011fer M\u00fczik",
    "photo_url": "https://www.biletix.com/static/images/live/event/eventimages/imeraUJ099.png",
    "event_name": "\u0130mera",
    "location": "Gebze Osman Hamdi Bey K\u00fclt\u00fcr Merkezi,Kocaeli",
    "date": "25 Mar 2020 \u00c7ar 20:30",
    "price": "45.00 TL",
    "lat": 40.806076,
    "lng": 29.439533
  },
  {
    "main_genre": "M\u00fczik",
    "sub_genre": "Di\u011fer M\u00fczik",
    "photo_url": "https://www.biletix.com/static/images/live/event/eventimages/gazino-gece.png",
    "event_name": "Gazino Gecesi G\u00fcl \u00d6zg\u00fcner Alt\u0131n & Sami Levi",
    "location": "Hayal Kahvesi Kocaeli ,Kocaeli",
    "date": "25 Mar 2020 \u00c7ar 22:15",
    "price": "68.00 TL",
    "lat": 40.7590879,
    "lng": 29.9796784
  },
  {
    "main_genre": "M\u00fczik",
    "sub_genre": "Di\u011fer M\u00fczik",
    "photo_url": "https://www.biletix.com/static/images/live/event/eventimages/ikiyeonkala_tugkan.png",
    "event_name": "Tu\u011fkan & \u0130kiye On Kala",
    "location": "Holly Stone Performance Hall,Antalya",
    "date": "26 Mar 2020 Per 20:00",
    "price": "60.00 TL",
    "lat": 36.8849166,
    "lng": 30.7044053
  },
  {
    "main_genre": "M\u00fczik",
    "sub_genre": "Di\u011fer M\u00fczik",
    "photo_url": "https://www.biletix.com/static/images/live/event/eventimages/husnu-halilVIEAH.png",
    "event_name": "H\u00fcsn\u00fc \u015eenlendirici & Halil Sezai",
    "location": "In Live Performance,Konya",
    "date": "27 Mar 2020 Cum 20:00",
    "price": "Tam : 68.00 TL - \u00d6\u011frenci : 48.00 TL",
    "lat": 38.0055852,
    "lng": 32.5170097
  },
  {
    "main_genre": "M\u00fczik",
    "sub_genre": "Di\u011fer M\u00fczik",
    "photo_url": "https://www.biletix.com/static/images/live/event/eventimages/oktaytemizZABAT.png",
    "event_name": "Crosswinds feat. Okay Temiz",
    "location": "Akbank Sanat,\u0130stanbul",
    "date": "27 Mar 2020 Cum 20:00",
    "price": "Tam 45.00 TL \u00d6\u011frenci 25.00 TL",
    "lat": 41.0359661,
    "lng": 28.9830674
  },
  {
    "main_genre": "M\u00fczik",
    "sub_genre": "Di\u011fer M\u00fczik",
    "photo_url": "https://www.biletix.com/static/images/live/event/eventimages/leilasahar-ZAZ07.png",
    "event_name": "Leila Forouhar & Sahar - Live in Antalya",
    "location": "Chapito,Antalya",
    "date": "27 Mar 2020 Cum 20:00",
    "price": "600.00 TL",
    "lat": 36.8808494,
    "lng": 31.0020071
  },
  {
    "main_genre": "Spor",
    "sub_genre": "Basketbol",
    "photo_url": null,
    "event_name": "Anadolu Efes - Panathinaikos OPAP",
    "location": "Sinan Erdem Spor Salonu,\u0130stanbul",
    "date": "27 Mar 2020 Cum 20:30",
    "price": "127.00 TL",
    "lat": 40.9886284,
    "lng": 28.8538923
  },
  {
    "main_genre": "Spor",
    "sub_genre": "Basketbol",
    "photo_url": "https://www.biletix.com/static/images/live/event/eventimages/ZEP21PNG.png",
    "event_name": "Anadolu Efes Tek Bilek Paketi",
    "location": "Sinan Erdem Spor Salonu,\u0130stanbul",
    "date": "27 Mar 2020 Cum 20:30",
    "price": "110.00 TL",
    "lat": 40.9886284,
    "lng": 28.8538923
  },
  {
    "main_genre": "Spor",
    "sub_genre": "Basketbol",
    "photo_url": null,
    "event_name": "Anadolu Efes - Meksa Yat\u0131r\u0131m Afyon Belediye",
    "location": "Sinan Erdem Spor Salonu,\u0130stanbul",
    "date": "05 Nis 2020 Paz 20:00",
    "price": "45.00 TL",
    "lat": 40.9886284,
    "lng": 28.8538923
  },
  {
    "main_genre": "Spor",
    "sub_genre": "Basketbol",
    "photo_url": null,
    "event_name": "Anadolu Efes - Tofa\u015f",
    "location": "Sinan Erdem Spor Salonu,\u0130stanbul",
    "date": "18 Nis 2020 Cmt 20:00",
    "price": "65.00 TL",
    "lat": 40.9886284,
    "lng": 28.8538923
  },
  {
    "main_genre": "Spor",
    "sub_genre": "Basketbol",
    "photo_url": null,
    "event_name": "Anadolu Efes - P\u0131nar Kar\u015f\u0131yaka",
    "location": "Sinan Erdem Spor Salonu,\u0130stanbul",
    "date": "03 May 2020 Paz 17:30",
    "price": "65.00 TL",
    "lat": 40.9886284,
    "lng": 28.8538923
  },
  {
    "main_genre": "Spor",
    "sub_genre": "D\u00f6v\u00fc\u015f Sporlar\u0131",
    "photo_url": "https://www.biletix.com/static/images/live/event/eventimages/zaat1-vendetta.png",
    "event_name": "Vendetta MMA Kick Boks Gecesi",
    "location": "Volkswagen Arena,\u0130stanbul",
    "date": "20 Haz 2020 Cmt 20:30",
    "price": "140.00 TL",
    "lat": 41.1086687,
    "lng": 29.0075838
  },
  {
    "main_genre": "Spor",
    "sub_genre": "Motor Sporlar\u0131",
    "photo_url": "https://www.biletix.com/static/images/live/event/eventimages/eurasia218979782.png",
    "event_name": "Eurasia Airshow 2020 Genel Ziyaret\u00e7i G\u00fcn\u00fc",
    "location": "Uluslaras\u0131 Antalya Havaliman\u0131,Antalya",
    "date": "27 Haz 2020 Cmt 10:00",
    "price": "Tam: 35.00 TL - \u00d6\u011frenci: 25.00 TL",
    "lat": 36.9043327,
    "lng": 30.8018768
  },
  {
    "main_genre": "Spor",
    "sub_genre": "Motor Sporlar\u0131",
    "photo_url": "https://www.biletix.com/static/images/live/event/eventimages/eurasia218979782.png",
    "event_name": "Eurasia Airshow 2020 Genel Ziyaret\u00e7i G\u00fcnleri - Kombine Bilet",
    "location": "Uluslaras\u0131 Antalya Havaliman\u0131,Antalya",
    "date": "27 Haz 2020 Cmt 10:00",
    "price": "Tam: 55.00 TL - \u00d6\u011frenci: 40.00 TL",
    "lat": 36.9043327,
    "lng": 30.8018768
  },
  {
    "main_genre": "Spor",
    "sub_genre": "Motor Sporlar\u0131",
    "photo_url": "https://www.biletix.com/static/images/live/event/eventimages/eurasia218979782.png",
    "event_name": "Eurasia Airshow 2020 Genel Ziyaret\u00e7i G\u00fcn\u00fc",
    "location": "Uluslaras\u0131 Antalya Havaliman\u0131,Antalya",
    "date": "28 Haz 2020 Paz 10:00",
    "price": "Tam: 35.00 TL - \u00d6\u011frenci: 25.00",
    "lat": 36.9043327,
    "lng": 30.8018768
  },
  {
    "main_genre": "Sahne Sanatlar\u0131",
    "sub_genre": "Bale Dans",
    "photo_url": "https://www.biletix.com/static/images/live/event/eventimages/dansin-ritmii-hodja.png",
    "event_name": "Dans\u0131n Ritmi",
    "location": "Hodjapasha G\u00f6steri ve Etkinlik Merkezi,\u0130stanbul",
    "date": "24 Mar 2020 Sal 20:30",
    "price": "105.00 TL",
    "lat": 41.0141943,
    "lng": 28.9757625
  },
  {
    "main_genre": "Sahne Sanatlar\u0131",
    "sub_genre": "Bale Dans",
    "photo_url": "https://www.biletix.com/static/images/live/event/eventimages/sema-ayini_yeni.jpg",
    "event_name": "Hocapa\u015fa Mevlevileri - Sema Ayini",
    "location": "Hodjapasha G\u00f6steri ve Etkinlik Merkezi,\u0130stanbul",
    "date": "25 Mar 2020 \u00c7ar 19:00",
    "price": "90.00 TL",
    "lat": 41.0141943,
    "lng": 28.9757625
  },
  {
    "main_genre": "Sahne Sanatlar\u0131",
    "sub_genre": "Bale Dans",
    "photo_url": "https://www.biletix.com/static/images/live/event/eventimages/dansin-ritmii-hodja.png",
    "event_name": "Dans\u0131n Ritmi",
    "location": "Hodjapasha G\u00f6steri ve Etkinlik Merkezi,\u0130stanbul",
    "date": "26 Mar 2020 Per 20:30",
    "price": "105.00 TL",
    "lat": 41.0141943,
    "lng": 28.9757625
  },
  {
    "main_genre": "Sahne Sanatlar\u0131",
    "sub_genre": "Bale Dans",
    "photo_url": "https://www.biletix.com/static/images/live/event/eventimages/sema-ayini_yeni.jpg",
    "event_name": "Hocapa\u015fa Mevlevileri - Sema Ayini",
    "location": "Hodjapasha G\u00f6steri ve Etkinlik Merkezi,\u0130stanbul",
    "date": "27 Mar 2020 Cum 19:00",
    "price": "90.00 TL",
    "lat": 41.0141943,
    "lng": 28.9757625
  },
  {
    "main_genre": "Sahne Sanatlar\u0131",
    "sub_genre": "Bale Dans",
    "photo_url": "https://www.biletix.com/static/images/live/event/eventimages/dansin-ritmii-hodja.png",
    "event_name": "Dans\u0131n Ritmi",
    "location": "Hodjapasha G\u00f6steri ve Etkinlik Merkezi,\u0130stanbul",
    "date": "28 Mar 2020 Cmt 20:30",
    "price": "105.00 TL",
    "lat": 41.0141943,
    "lng": 28.9757625
  },
  {
    "main_genre": "Sahne Sanatlar\u0131",
    "sub_genre": "Bale Dans",
    "photo_url": "https://www.biletix.com/static/images/live/event/eventimages/sema-ayini_yeni.jpg",
    "event_name": "Hocapa\u015fa Mevlevileri - Sema Ayini",
    "location": "Hodjapasha G\u00f6steri ve Etkinlik Merkezi,\u0130stanbul",
    "date": "29 Mar 2020 Paz 19:00",
    "price": "90.00 TL",
    "lat": 41.0141943,
    "lng": 28.9757625
  },
  {
    "main_genre": "Sahne Sanatlar\u0131",
    "sub_genre": "Bale Dans",
    "photo_url": "https://www.biletix.com/static/images/live/event/eventimages/sema-ayini_yeni.jpg",
    "event_name": "Hocapa\u015fa Mevlevileri - Sema Ayini",
    "location": "Hodjapasha G\u00f6steri ve Etkinlik Merkezi,\u0130stanbul",
    "date": "30 Mar 2020 Pzt 19:00",
    "price": "90.00 TL",
    "lat": 41.0141943,
    "lng": 28.9757625
  },
  {
    "main_genre": "Sahne Sanatlar\u0131",
    "sub_genre": "Bale Dans",
    "photo_url": "https://www.biletix.com/static/images/live/event/eventimages/sema-ayini_yeni.jpg",
    "event_name": "Hocapa\u015fa Mevlevileri - Sema Ayini",
    "location": "Hodjapasha G\u00f6steri ve Etkinlik Merkezi,\u0130stanbul",
    "date": "01 Nis 2020 \u00c7ar 19:00",
    "price": "120.00 TL",
    "lat": 41.0141943,
    "lng": 28.9757625
  },
  {
    "main_genre": "Sahne Sanatlar\u0131",
    "sub_genre": "G\u00f6steri",
    "photo_url": "https://www.biletix.com/static/images/live/event/eventimages/barpsikologu_YGO6Z.png",
    "event_name": "Bar Psikolo\u011fu",
    "location": "Bahane K\u00fclt\u00fcr Salon,\u0130stanbul",
    "date": "24 Mar 2020 Sal 21:00",
    "price": "68.00 TL",
    "lat": 40.9864481,
    "lng": 29.0266299
  },
  {
    "main_genre": "Sahne Sanatlar\u0131",
    "sub_genre": "G\u00f6steri",
    "photo_url": null,
    "event_name": "Alice M\u00fczikali",
    "location": "Zorlu PSM - Turkcell Sahnesi,\u0130stanbul",
    "date": "25 Mar 2020 \u00c7ar 21:00",
    "price": "Tam: 318.00 TL - \u00d6\u011frenci: 258.00 TL",
    "lat": 41.0671688,
    "lng": 29.0174907
  },
  {
    "main_genre": "Sahne Sanatlar\u0131",
    "sub_genre": "G\u00f6steri",
    "photo_url": null,
    "event_name": "Alice M\u00fczikali",
    "location": "Zorlu PSM - Turkcell Sahnesi,\u0130stanbul",
    "date": "26 Mar 2020 Per 21:00",
    "price": "Tam: 318.00 TL - \u00d6\u011frenci: 258.00 TL",
    "lat": 41.0671688,
    "lng": 29.0174907
  },
  {
    "main_genre": "Sahne Sanatlar\u0131",
    "sub_genre": "G\u00f6steri",
    "photo_url": "https://www.biletix.com/static/images/live/event/eventimages/muebbetmuhabbet_etk.png",
    "event_name": "M\u00fcebbet Muhabbet",
    "location": "Duru Ata\u015fehir Ana Sahne,\u0130stanbul",
    "date": "03 Nis 2020 Cum 20:30",
    "price": "77.00 TL",
    "lat": 40.9830348,
    "lng": 29.0298814
  },
  {
    "main_genre": "Sahne Sanatlar\u0131",
    "sub_genre": "G\u00f6steri",
    "photo_url": "https://www.biletix.com/static/images/live/event/eventimages/zoo01-odtu.png",
    "event_name": "Ba\u011f\u0131ms\u0131zl\u0131\u011f\u0131n Ate\u015fi",
    "location": "\u0130\u015f Kuleleri Salonu,\u0130stanbul",
    "date": "aa",
    "price": "56.50 TL",
    "lat": 41.0831461,
    "lng": 29.0117207
  },
  {
    "main_genre": "Sahne Sanatlar\u0131",
    "sub_genre": "G\u00f6steri",
    "photo_url": "https://www.biletix.com/static/images/live/event/eventimages/kafkass-2019.png",
    "event_name": "Kafkas Kartallar\u0131",
    "location": "MEB \u015eura Salonu,Ankara",
    "date": "05 Nis 2020 Paz 19:00",
    "price": "79.00 TL",
    "lat": 39.9360228,
    "lng": 32.8251797
  },
  {
    "main_genre": "Sahne Sanatlar\u0131",
    "sub_genre": "G\u00f6steri",
    "photo_url": null,
    "event_name": "Alice M\u00fczikali",
    "location": "Zorlu PSM - Turkcell Sahnesi,\u0130stanbul",
    "date": "05 Nis 2020 Paz 20:00",
    "price": "Tam: 318.00 TL - \u00d6\u011frenci: 258.00 TL",
    "lat": 41.0671688,
    "lng": 29.0174907
  },
  {
    "main_genre": "Sahne Sanatlar\u0131",
    "sub_genre": "G\u00f6steri",
    "photo_url": null,
    "event_name": "Friendsical-Friends Parodi M\u00fczikali",
    "location": "UNIQ Hall,\u0130stanbul",
    "date": "07 Nis 2020 Sal 20:30",
    "price": "175.00 TL",
    "lat": 41.1080524,
    "lng": 29.00721
  },
  {
    "main_genre": "Sahne Sanatlar\u0131",
    "sub_genre": "Stand-Up",
    "photo_url": "https://www.biletix.com/static/images/live/event/eventimages/z1a08z.png",
    "event_name": "Oytun Hoca ile TIP",
    "location": "Zorlu PSM, Sky Lounge,\u0130stanbul",
    "date": "24 Mar 2020 Sal 20:00",
    "price": "110.00 TL",
    "lat": 41.0671688,
    "lng": 29.0174907
  },
  {
    "main_genre": "Sahne Sanatlar\u0131",
    "sub_genre": "Stand-Up",
    "photo_url": "https://www.biletix.com/static/images/live/event/eventimages/ydryd_metinuca.png",
    "event_name": "Metin Uca - Dilinizi E\u015fek Ar\u0131s\u0131 Soksun",
    "location": "Ankara CerModern,Ankara",
    "date": "24 Mar 2020 Sal 20:00",
    "price": "100.00 TL",
    "lat": 39.9316223,
    "lng": 32.849489
  },
  {
    "main_genre": "Sahne Sanatlar\u0131",
    "sub_genre": "Stand-Up",
    "photo_url": "https://www.biletix.com/static/images/live/event/eventimages/YSV94_gorsel.png",
    "event_name": "\"M\u00fckemmel Baband\u0131r\u201d \u00d6zden \u00d6z Uslu Stand Up Show",
    "location": "IF Performance Hall Ata\u015fehir,\u0130stanbul",
    "date": "24 Mar 2020 Sal 20:30",
    "price": "50.00 TL",
    "lat": 40.9941663,
    "lng": 29.1102139
  },
  {
    "main_genre": "Sahne Sanatlar\u0131",
    "sub_genre": "Stand-Up",
    "photo_url": null,
    "event_name": "Sefa Do\u011fanay Stand-up G\u00f6sterisi",
    "location": "Sel\u00e7uklu Kongre Merkezi Anadolu Oditoryum,Konya",
    "date": "aa",
    "price": "110.00 TL",
    "lat": 37.9298166,
    "lng": 32.5094611
  },
  {
    "main_genre": "Sahne Sanatlar\u0131",
    "sub_genre": "Stand-Up",
    "photo_url": "https://www.biletix.com/static/images/live/event/eventimages/Z2151_gorsel.png",
    "event_name": "Tuz Biber Stand Up",
    "location": "Route Ankara,Ankara",
    "date": "24 Mar 2020 Sal 21:15",
    "price": "51.00 TL",
    "lat": 39.91701,
    "lng": 32.85749
  },
  {
    "main_genre": "Sahne Sanatlar\u0131",
    "sub_genre": "Stand-Up",
    "photo_url": "https://www.biletix.com/static/images/live/event/eventimages/Y21AM_gorsel.png",
    "event_name": "Stand Up Ankara A\u00e7\u0131k Mikrofon",
    "location": "Route Ankara,Ankara",
    "date": "25 Mar 2020 \u00c7ar 20:00",
    "price": "34.00 TL",
    "lat": 39.91701,
    "lng": 32.85749
  },
  {
    "main_genre": "Sahne Sanatlar\u0131",
    "sub_genre": "Stand-Up",
    "photo_url": "https://www.biletix.com/static/images/live/event/eventimages/Y21AA_gorsel.png",
    "event_name": "Miray - Stand Up",
    "location": "Akasya K\u00fclt\u00fcr Sanat,\u0130stanbul",
    "date": "25 Mar 2020 \u00c7ar 20:30",
    "price": "70.00 TL",
    "lat": 41.0014977,
    "lng": 29.0541023
  },
  {
    "main_genre": "Sahne Sanatlar\u0131",
    "sub_genre": "Stand-Up",
    "photo_url": "https://www.biletix.com/static/images/live/event/eventimages/okancabalarrrYT826.png",
    "event_name": "Okan Cabalar",
    "location": "Caddebostan K\u00fclt\u00fcr Merkezi A Salonu,\u0130stanbul",
    "date": "25 Mar 2020 \u00c7ar 20:30",
    "price": "56.00 TL",
    "lat": 40.9673487,
    "lng": 29.0646525
  },
  {
    "main_genre": "Sahne Sanatlar\u0131",
    "sub_genre": "Tiyatro",
    "photo_url": "https://www.biletix.com/static/images/live/event/eventimages/guneylibayanZFU03.png",
    "event_name": "G\u00fcneyli Bayan",
    "location": "Sabanc\u0131 \u00dcniversitesi G\u00f6steri Merkezi,\u0130stanbul",
    "date": "24 Mar 2020 Sal 20:00",
    "price": "Tam 35.00 TL \u00d6\u011frenci 30.00 TL",
    "lat": 40.8928831,
    "lng": 29.3748667
  },
  {
    "main_genre": "Sahne Sanatlar\u0131",
    "sub_genre": "Tiyatro",
    "photo_url": "https://www.biletix.com/static/images/live/event/eventimages/yl941.png",
    "event_name": "B\u00fclent BEY\u0130N Hikayesi",
    "location": "\u00c7ankaya Sahne,Ankara",
    "date": "24 Mar 2020 Sal 20:00",
    "price": "Tam 78.50 TL, \u00d6\u011frenci 68.50 TL",
    "lat": 39.9011996,
    "lng": 32.8576902
  },
  {
    "main_genre": "Sahne Sanatlar\u0131",
    "sub_genre": "Tiyatro",
    "photo_url": "https://www.biletix.com/static/images/live/event/eventimages/aziznew1.jpg",
    "event_name": "Azizname",
    "location": "Manisa Belediyesi K\u00fclt\u00fcr Merkezi Lale Salonu,Manisa",
    "date": "24 Mar 2020 Sal 20:00",
    "price": "68.00 TL Tam - 58,00 TL \u00d6\u011frenci",
    "lat": 38.61508,
    "lng": 27.427716
  },
  {
    "main_genre": "Sahne Sanatlar\u0131",
    "sub_genre": "Tiyatro",
    "photo_url": "https://www.biletix.com/static/images/live/event/eventimages/ystl1.jpg",
    "event_name": "Seni Unutmak \u0130stemedim ki",
    "location": "Diyarbak\u0131r B\u00fcy\u00fck\u015fehir Belediyesi K\u00fclt\u00fcr ve Kongre Merkezi Konferans Salonu,Diyarbak\u0131r",
    "date": "24 Mar 2020 Sal 20:00",
    "price": "67.50 TL",
    "lat": 37.91207929999999,
    "lng": 40.2245523
  },
  {
    "main_genre": "Sahne Sanatlar\u0131",
    "sub_genre": "Tiyatro",
    "photo_url": "https://www.biletix.com/static/images/live/event/eventimages/firattanis_gelintanisolalim.jpg",
    "event_name": "F\u0131rat Tan\u0131\u015f ile Gelin Tan\u0131\u015f Olal\u0131m",
    "location": "Urfa City AVM,\u015eanl\u0131urfa",
    "date": "24 Mar 2020 Sal 20:00",
    "price": "101.00 TL",
    "lat": 37.1820227,
    "lng": 38.8070798
  },
  {
    "main_genre": "Sahne Sanatlar\u0131",
    "sub_genre": "Sinema",
    "photo_url": "https://www.biletix.com/static/images/live/event/eventimages/firtinaZABAQ.png",
    "event_name": "F\u0131rt\u0131na \u00c7ocuk",
    "location": "Akbank Sanat,\u0130stanbul",
    "date": "28 Mar 2020 Cmt 11:30",
    "price": "Tam 23.00 TL \u00d6\u011frenci 13.00 TL",
    "lat": 41.0359661,
    "lng": 28.9830674
  },
  {
    "main_genre": "Sahne Sanatlar\u0131",
    "sub_genre": "Sinema",
    "photo_url": "https://www.biletix.com/static/images/live/event/eventimages/zkmc4-koma.png",
    "event_name": "82ekran Sunar: Gece Sinemas\u0131",
    "location": "Koma Sahnesi,\u0130stanbul",
    "date": "28 Mar 2020 Cmt 23:30",
    "price": "39.50 TL",
    "lat": 40.9919616,
    "lng": 29.0342474
  },
  {
    "main_genre": "Sahne Sanatlar\u0131",
    "sub_genre": "Sinema",
    "photo_url": "https://www.biletix.com/static/images/live/event/eventimages/manzaraZV533.png",
    "event_name": "Manzara",
    "location": "Tatavla Sahnesi,\u0130stanbul",
    "date": "29 Mar 2020 Paz 19:00",
    "price": "Tam 68.00 TL \u00d6\u011frenci 48.00 TL",
    "lat": 41.0317036,
    "lng": 28.9818866
  },
  {
    "main_genre": "Sahne Sanatlar\u0131",
    "sub_genre": "Sinema",
    "photo_url": "https://www.biletix.com/static/images/live/event/eventimages/olumbiziayiranadek.png",
    "event_name": "\u00d6l\u00fcn Bizi Ay\u0131rana Dek",
    "location": "\u00c7ankaya Sahne,Ankara",
    "date": "24 Nis 2020 Cum 20:30",
    "price": "112.00 TL",
    "lat": 39.9011996,
    "lng": 32.8576902
  },
  {
    "main_genre": "Sahne Sanatlar\u0131",
    "sub_genre": "Di\u011fer Sahne Sanatlar\u0131",
    "photo_url": "https://www.biletix.com/static/images/live/event/eventimages/zsfk1geldiklerigibi.png",
    "event_name": "Geldikleri Gibi...",
    "location": "Ziya G\u00f6kalp Sanat ve K\u00fclt\u00fcr Merkezi,\u0130zmir",
    "date": "25 Mar 2020 \u00c7ar 20:00",
    "price": "23.50 TL",
    "lat": 38.468293,
    "lng": 27.1129603
  },
  {
    "main_genre": "Aile E\u011flencesi",
    "sub_genre": "G\u00f6steri",
    "photo_url": "https://www.biletix.com/static/images/live/event/eventimages/elifindusleri135682126.png",
    "event_name": "Elif'in D\u00fc\u015fleri",
    "location": "Sinop K\u00fclt\u00fcr Merkezi,Sinop",
    "date": "24 Mar 2020 Sal 19:00",
    "price": "33.50 TL",
    "lat": 42.0236938,
    "lng": 35.136742
  },
  {
    "main_genre": "Aile E\u011flencesi",
    "sub_genre": "G\u00f6steri",
    "photo_url": "https://www.biletix.com/static/images/live/event/eventimages/elifindusleri135682126.png",
    "event_name": "Elif'in D\u00fc\u015fleri",
    "location": "Samsun B.Beld. Atakum Sanat Merkezi K\u00fc\u00e7\u00fck Salon,Samsun",
    "date": "25 Mar 2020 \u00c7ar 19:00",
    "price": "33.50 TL",
    "lat": 41.3308629,
    "lng": 36.2922765
  },
  {
    "main_genre": "Aile E\u011flencesi",
    "sub_genre": "G\u00f6steri",
    "photo_url": "https://www.biletix.com/static/images/live/event/eventimages/elifindusleri135682126.png",
    "event_name": "Elif'in D\u00fc\u015fleri",
    "location": "Fatsa Belediye K\u00fclt\u00fcr Saray\u0131,Ordu",
    "date": "26 Mar 2020 Per 19:00",
    "price": "33.50 TL",
    "lat": 41.0355429,
    "lng": 37.4931802
  },
  {
    "main_genre": "Aile E\u011flencesi",
    "sub_genre": "G\u00f6steri",
    "photo_url": "https://www.biletix.com/static/images/live/event/eventimages/magic-showw1.png",
    "event_name": "Magic Show For Kids (Sihirbaz K\u0131zlar)",
    "location": "K\u00fc\u00e7\u00fck Sahne UNIQ,\u0130stanbul",
    "date": "aa",
    "price": "80.00 TL",
    "lat": 41.1091808,
    "lng": 29.0086258
  },
  {
    "main_genre": "Aile E\u011flencesi",
    "sub_genre": "G\u00f6steri",
    "photo_url": "https://www.biletix.com/static/images/live/event/eventimages/geppettopinokyosu-ZT913.png",
    "event_name": "Geppetto'nun Pinokyosu",
    "location": "K\u00fc\u00e7\u00fck Sahne UNIQ,\u0130stanbul",
    "date": "aa",
    "price": "60.00 TL",
    "lat": 41.1091808,
    "lng": 29.0086258
  },
  {
    "main_genre": "Aile E\u011flencesi",
    "sub_genre": "G\u00f6steri",
    "photo_url": "https://www.biletix.com/static/images/live/event/eventimages/ynj24.png",
    "event_name": "Oyuncak Hikayesi",
    "location": "ininal ESPOR ARENA / SAHNE 42 ,\u0130stanbul",
    "date": "29 Mar 2020 Paz 13:00",
    "price": "45.00 TL",
    "lat": 41.1125639,
    "lng": 29.0208298
  },
  {
    "main_genre": "Aile E\u011flencesi",
    "sub_genre": "G\u00f6steri",
    "photo_url": "https://www.biletix.com/static/images/live/event/eventimages/bir-sihrim-var_enverr.jpg",
    "event_name": "Enver Erta\u015f ile Bir Sihrim Var \u00c7ocuklar",
    "location": "K\u00fc\u00e7\u00fck Sahne UNIQ,\u0130stanbul",
    "date": "aa",
    "price": "80.00 TL",
    "lat": 41.1091808,
    "lng": 29.0086258
  },
  {
    "main_genre": "Aile E\u011flencesi",
    "sub_genre": "G\u00f6steri",
    "photo_url": "https://www.biletix.com/static/images/live/event/eventimages/elifindusleri135682126.png",
    "event_name": "Elif'in D\u00fc\u015fleri",
    "location": "Sel\u00e7uklu Kongre Merkezi Konya Oditoryum,Konya",
    "date": "04 Nis 2020 Cmt 11:00",
    "price": "33.50 TL",
    "lat": 37.9364762,
    "lng": 32.5122852
  },
  {
    "main_genre": "Aile E\u011flencesi",
    "sub_genre": "G\u00f6steri",
    "photo_url": null,
    "event_name": "Peter Pan \u00c7ocuk M\u00fczikali",
    "location": "Hali\u00e7 Kongre Merkezi,\u0130stanbul",
    "date": "aa",
    "price": "120.00 TL",
    "lat": 41.05376,
    "lng": 28.94476
  },
  {
    "main_genre": "Aile E\u011flencesi",
    "sub_genre": "Tiyatro",
    "photo_url": "https://www.biletix.com/static/images/live/event/eventimages/kucukprens134675281.png",
    "event_name": "K\u00fc\u00e7\u00fck Prens",
    "location": "Hatay K\u00fclt\u00fcr Merkezi,Hatay",
    "date": "24 Mar 2020 Sal 19:00",
    "price": "34.00 TL",
    "lat": 36.203277,
    "lng": 36.153995
  },
  {
    "main_genre": "Aile E\u011flencesi",
    "sub_genre": "Tiyatro",
    "photo_url": "https://www.biletix.com/static/images/live/event/eventimages/tarzanmuzikali-ZHX09.png",
    "event_name": "Tarzan",
    "location": "H\u00fcseyin Tato\u011flu K\u00fclt\u00fcr Merkezi,Zonguldak",
    "date": "24 Mar 2020 Sal 19:00",
    "price": "30.00 TL",
    "lat": 41.2892561,
    "lng": 31.4104509
  },
  {
    "main_genre": "Aile E\u011flencesi",
    "sub_genre": "Tiyatro",
    "photo_url": "https://www.biletix.com/static/images/live/event/eventimages/seker-portakalii.png",
    "event_name": "\u015eeker Portakal\u0131",
    "location": "Ceyhan Murat G\u00f6\u011febakan K\u00fclt\u00fcr Merkezi,Adana",
    "date": "25 Mar 2020 \u00c7ar 18:30",
    "price": "34.00 TL",
    "lat": 37.0128766,
    "lng": 35.8289634
  },
  {
    "main_genre": "Aile E\u011flencesi",
    "sub_genre": "Tiyatro",
    "photo_url": "https://www.biletix.com/static/images/live/event/eventimages/bugs%20Sbunny.jpg",
    "event_name": "Bugs Bunny Ne\u015feli Orman",
    "location": "\u00c7ukurova Belediyesi Orhan Kemal K\u00fclt\u00fcr Merkezi,Adana",
    "date": "25 Mar 2020 \u00c7ar 19:00",
    "price": "23.50 TL",
    "lat": 37.0403555,
    "lng": 35.271929
  },
  {
    "main_genre": "Aile E\u011flencesi",
    "sub_genre": "Tiyatro",
    "photo_url": "https://www.biletix.com/static/images/live/event/eventimages/kuklamanya.zrq66.jpg",
    "event_name": "Kuklamanya \u00c7i\u011fdem \u00c7elebi ve Marmelat",
    "location": "Urfa City AVM,\u015eanl\u0131urfa",
    "date": "25 Mar 2020 \u00c7ar 19:00",
    "price": "28.50 TL",
    "lat": 37.1820227,
    "lng": 38.8070798
  },
  {
    "main_genre": "Aile E\u011flencesi",
    "sub_genre": "Tiyatro",
    "photo_url": "https://www.biletix.com/static/images/live/event/eventimages/tarzanmuzikali-ZHX09.png",
    "event_name": "Tarzan",
    "location": "Zonguldak Atat\u00fcrk K\u00fclt\u00fcr Merkezi,Zonguldak",
    "date": "25 Mar 2020 \u00c7ar 19:00",
    "price": "30.00 TL",
    "lat": 41.4527209,
    "lng": 31.791288
  },
  {
    "main_genre": "Aile E\u011flencesi",
    "sub_genre": "Tiyatro",
    "photo_url": "https://www.biletix.com/static/images/live/event/eventimages/heidi-stage-show.jpg",
    "event_name": "Heidi Stage Show",
    "location": "Postac\u0131lar \u0130smet \u0130n\u00f6n\u00fc K\u00fclt\u00fcr Merkezi ,\u0130zmir",
    "date": "aa",
    "price": "28.50 TL",
    "lat": 38.4306116,
    "lng": 27.1436809
  },
  {
    "main_genre": "Aile E\u011flencesi",
    "sub_genre": "Di\u011fer Aile E\u011flencesi",
    "photo_url": "https://www.biletix.com/static/images/live/event/eventimages/kidzaniaa-2018.png",
    "event_name": "KidZania - Mart",
    "location": "KidZania,\u0130stanbul",
    "date": "aa",
    "price": "",
    "lat": 41.0009131,
    "lng": 29.0545777
  },
  {
    "main_genre": "Aile E\u011flencesi",
    "sub_genre": "Di\u011fer Aile E\u011flencesi",
    "photo_url": "https://www.biletix.com/static/images/live/event/eventimages/kidz-mondo-kasim.png",
    "event_name": "KidzMondo - Mart",
    "location": "KidzMondo Trump \u0130stanbul,\u0130stanbul",
    "date": "aa",
    "price": "",
    "lat": 41.0674881,
    "lng": 28.9923918
  },
  {
    "main_genre": "Aile E\u011flencesi",
    "sub_genre": "Di\u011fer Aile E\u011flencesi",
    "photo_url": "https://www.biletix.com/static/images/live/event/eventimages/isfanbulTVL01.png",
    "event_name": "\u0130sfanbul Tema Park",
    "location": "\u0130sfanbul,\u0130stanbul",
    "date": "aa",
    "price": "",
    "lat": 41.0744396,
    "lng": 28.9233663
  },
  {
    "main_genre": "Aile E\u011flencesi",
    "sub_genre": "Di\u011fer Aile E\u011flencesi",
    "photo_url": null,
    "event_name": "Jungle \u0130stanbul",
    "location": "\u0130sfanbul,\u0130stanbul",
    "date": "aa",
    "price": null,
    "lat": 41.0744396,
    "lng": 28.9233663
  },
  {
    "main_genre": "Aile E\u011flencesi",
    "sub_genre": "Di\u011fer Aile E\u011flencesi",
    "photo_url": "https://www.biletix.com/static/images/live/event/eventimages/zr106.png",
    "event_name": "Ebeveynli Bebek Sanat At\u00f6lyesi",
    "location": "\u00d6yk\u00fc Sanat Sahne,\u0130stanbul",
    "date": "10 Nis 2020 Cum 10:30",
    "price": "102.00 TL",
    "lat": 41.0062688,
    "lng": 29.0743683
  },
  {
    "main_genre": "Aile E\u011flencesi",
    "sub_genre": "Di\u011fer Aile E\u011flencesi",
    "photo_url": "https://www.biletix.com/static/images/live/event/eventimages/zr107.png",
    "event_name": "\u00c7ocuk Sanat At\u00f6lyesi",
    "location": "\u00d6yk\u00fc Sanat Sahne,\u0130stanbul",
    "date": "10 Nis 2020 Cum 13:00",
    "price": "102.00 TL",
    "lat": 41.0062688,
    "lng": 29.0743683
  },
  {
    "main_genre": "Aile E\u011flencesi",
    "sub_genre": "Di\u011fer Aile E\u011flencesi",
    "photo_url": "https://www.biletix.com/static/images/live/event/eventimages/zaab4.png",
    "event_name": "Park Of \u0130stanbul Hayvanat Bah\u00e7esi",
    "location": "Park Of \u0130stanbul,\u0130stanbul",
    "date": "aa",
    "price": "",
    "lat": 41.0505952,
    "lng": 29.2487626
  },
  {
    "main_genre": "E\u011fitim & Di\u011fer",
    "sub_genre": "At\u00f6lye",
    "photo_url": "https://www.biletix.com/static/images/live/event/eventimages/yagliboyaVCY02-ekimm.png",
    "event_name": "Ya\u011fl\u0131boya Resim Workshopu - Mart",
    "location": "\u015ei\u015fli Sanat Kursu,\u0130stanbul",
    "date": "aa",
    "price": "",
    "lat": 41.0600687,
    "lng": 28.9881109
  },
  {
    "main_genre": "E\u011fitim & Di\u011fer",
    "sub_genre": "At\u00f6lye",
    "photo_url": "https://www.biletix.com/static/images/live/event/eventimages/heykell-ekimVCY00.png",
    "event_name": "Heykel Workshop - Mart",
    "location": "\u015ei\u015fli Sanat Kursu,\u0130stanbul",
    "date": "aa",
    "price": "",
    "lat": 41.0600687,
    "lng": 28.9881109
  },
  {
    "main_genre": "E\u011fitim & Di\u011fer",
    "sub_genre": "At\u00f6lye",
    "photo_url": "https://www.biletix.com/static/images/live/event/eventimages/YCM20.png",
    "event_name": "Reyhan Alg\u00fcl ile M\u00fckemmeliyet\u00e7inin A\u015fil Topu\u011fu: T\u00fckenmi\u015fli\u011fi Y\u00f6netmek",
    "location": "Ferko Signature Managed by Assembly,\u0130stanbul",
    "date": "24 Mar 2020 Sal 19:30",
    "price": "150.00 TL",
    "lat": 41.0767609,
    "lng": 29.0131753
  },
  {
    "main_genre": "E\u011fitim & Di\u011fer",
    "sub_genre": "At\u00f6lye",
    "photo_url": "https://www.biletix.com/static/images/live/event/eventimages/bedenvezihin-ZH431.png",
    "event_name": "Beden ve Zihin Uyumlamas\u0131: Sheri A. Sayar & \u00c7a\u011fla Kahriman",
    "location": "Gedik Sanat,\u0130stanbul",
    "date": "24 Mar 2020 Sal 20:00",
    "price": "168.00 TL",
    "lat": 41.0500719,
    "lng": 28.9932105
  },
  {
    "main_genre": "E\u011fitim & Di\u011fer",
    "sub_genre": "At\u00f6lye",
    "photo_url": "https://www.biletix.com/static/images/live/event/eventimages/sokaklezzetZBU34.png",
    "event_name": "D\u00fcnyadan Sokak Lezzetleri",
    "location": "Bah\u00e7e\u015fehir \u00dcniversitesi,\u0130stanbul",
    "date": "25 Mar 2020 \u00c7ar 19:00",
    "price": "250.00 TL",
    "lat": 41.042165,
    "lng": 29.0092591
  },
  {
    "main_genre": "E\u011fitim & Di\u011fer",
    "sub_genre": "At\u00f6lye",
    "photo_url": "https://www.biletix.com/static/images/live/event/eventimages/ZCM11.png",
    "event_name": "Yank\u0131 Yazgan ile Bizim Evdeki Ergen: Belirsizlik Ortam\u0131nda Ebeveyn Olmak",
    "location": "Ferko Signature Managed by Assembly,\u0130stanbul",
    "date": "25 Mar 2020 \u00c7ar 20:00",
    "price": "180.00 TL",
    "lat": 41.0767609,
    "lng": 29.0131753
  },
  {
    "main_genre": "E\u011fitim & Di\u011fer",
    "sub_genre": "At\u00f6lye",
    "photo_url": "https://www.biletix.com/static/images/live/event/eventimages/kafkadonusumatolyesi-gorsel.png",
    "event_name": "Kafka D\u00f6n\u00fc\u015f\u00fcm At\u00f6lyesi",
    "location": "Museum of Illusions Istanbul,\u0130stanbul",
    "date": "26 Mar 2020 Per 19:00",
    "price": "100.00 TL",
    "lat": 41.0292315,
    "lng": 28.9749897
  },
  {
    "main_genre": "E\u011fitim & Di\u011fer",
    "sub_genre": "E\u011fitim",
    "photo_url": "https://www.biletix.com/static/images/live/event/eventimages/ilkask_01.gif",
    "event_name": "Masterpiece Galata Resim - \u0130lk A\u015fk",
    "location": "Masterpiece Galata,\u0130stanbul",
    "date": "24 Mar 2020 Sal 19:00",
    "price": "110.00 TL",
    "lat": 41.0265418,
    "lng": 28.976172
  },
  {
    "main_genre": "E\u011fitim & Di\u011fer",
    "sub_genre": "E\u011fitim",
    "photo_url": "https://www.biletix.com/static/images/live/event/eventimages/heykel_tropik.png",
    "event_name": "Masterpiece Galata Heykel -Tropik",
    "location": "Masterpiece Galata Heykel ,\u0130stanbul",
    "date": "24 Mar 2020 Sal 19:00",
    "price": "",
    "lat": 41.0265418,
    "lng": 28.976172
  },
  {
    "main_genre": "E\u011fitim & Di\u011fer",
    "sub_genre": "E\u011fitim",
    "photo_url": "https://www.biletix.com/static/images/live/event/eventimages/pegasus_masterpiece.png",
    "event_name": "Masterpiece G\u00f6ztepe Resim - Pegasus",
    "location": "Masterpiece G\u00f6ztepe,\u0130stanbul",
    "date": "25 Mar 2020 \u00c7ar 19:00",
    "price": "",
    "lat": 40.980129,
    "lng": 29.07281
  },
  {
    "main_genre": "E\u011fitim & Di\u011fer",
    "sub_genre": "E\u011fitim",
    "photo_url": "https://www.biletix.com/static/images/live/event/eventimages/pegasus_masterpiece.png",
    "event_name": "Masterpiece Galata Resim - Pegasus",
    "location": "Masterpiece Galata,\u0130stanbul",
    "date": "25 Mar 2020 \u00c7ar 19:00",
    "price": "",
    "lat": 41.0265418,
    "lng": 28.976172
  },
  {
    "main_genre": "E\u011fitim & Di\u011fer",
    "sub_genre": "E\u011fitim",
    "photo_url": "https://www.biletix.com/static/images/live/event/eventimages/daphneZ0566.png",
    "event_name": "Masterpiece Galata Heykel -Daphne",
    "location": "Masterpiece Galata Heykel ,\u0130stanbul",
    "date": "25 Mar 2020 \u00c7ar 19:00",
    "price": "",
    "lat": 41.0265418,
    "lng": 28.976172
  },
  {
    "main_genre": "E\u011fitim & Di\u011fer",
    "sub_genre": "E\u011fitim",
    "photo_url": "https://www.biletix.com/static/images/live/event/eventimages/pegasus_masterpiece.png",
    "event_name": "Masterpiece Bursa Resim - Pegasus",
    "location": "Masterpiece Bursa ,Bursa",
    "date": "25 Mar 2020 \u00c7ar 19:00",
    "price": "",
    "lat": 40.217971,
    "lng": 28.92217999999999
  },
  {
    "main_genre": "E\u011fitim & Di\u011fer",
    "sub_genre": "E\u011fitim",
    "photo_url": "https://www.biletix.com/static/images/live/event/eventimages/pelinesmer-filmhafizasi.png",
    "event_name": "Ke\u015ffetmenin Keyfi hosted by Pelin Esmer",
    "location": "The Game,\u0130stanbul",
    "date": "25 Mar 2020 \u00c7ar 20:00",
    "price": "Tam 39.50 TL \u00d6\u011frenci 29.50 TL",
    "lat": 41.0641864,
    "lng": 29.0106883
  },
  {
    "main_genre": "E\u011fitim & Di\u011fer",
    "sub_genre": "Sergi",
    "photo_url": "https://www.biletix.com/static/images/live/event/eventimages/yaw01-andywarhol.png",
    "event_name": "Andy Warhol",
    "location": "Uniq Expo,\u0130stanbul",
    "date": "24 Mar 2020 Sal 17:00",
    "price": "Genel Giri\u015f 26.00 TL 65 Ya\u015f \u00dcst\u00fc 14.75 TL",
    "lat": 41.1080524,
    "lng": 29.00721
  },
  {
    "main_genre": "E\u011fitim & Di\u011fer",
    "sub_genre": "Sergi",
    "photo_url": "https://www.biletix.com/static/images/live/event/eventimages/yaw01-andywarhol.png",
    "event_name": "Andy Warhol",
    "location": "Uniq Expo,\u0130stanbul",
    "date": "25 Mar 2020 \u00c7ar 17:00",
    "price": "Genel Giri\u015f 26.00 TL 65 Ya\u015f \u00dcst\u00fc 14.75 TL",
    "lat": 41.1080524,
    "lng": 29.00721
  },
  {
    "main_genre": "E\u011fitim & Di\u011fer",
    "sub_genre": "Sergi",
    "photo_url": "https://www.biletix.com/static/images/live/event/eventimages/yaw01-andywarhol.png",
    "event_name": "Andy Warhol",
    "location": "Uniq Expo,\u0130stanbul",
    "date": "26 Mar 2020 Per 17:00",
    "price": "Genel Giri\u015f 26.00 TL 65 Ya\u015f \u00dcst\u00fc 14.75 TL",
    "lat": 41.1080524,
    "lng": 29.00721
  },
  {
    "main_genre": "E\u011fitim & Di\u011fer",
    "sub_genre": "Sergi",
    "photo_url": "https://www.biletix.com/static/images/live/event/eventimages/dreamrooms201230705.png",
    "event_name": "Dream Rooms",
    "location": "Dream Rooms,\u0130stanbul",
    "date": "aa",
    "price": "",
    "lat": 41.1087848,
    "lng": 29.018192
  },
  {
    "main_genre": "E\u011fitim & Di\u011fer",
    "sub_genre": "Sergi",
    "photo_url": "https://www.biletix.com/static/images/live/event/eventimages/yaw01-andywarhol.png",
    "event_name": "Andy Warhol",
    "location": "Uniq Expo,\u0130stanbul",
    "date": "27 Mar 2020 Cum 17:00",
    "price": "Genel Giri\u015f 26.00 TL 65 Ya\u015f \u00dcst\u00fc 14.75 TL",
    "lat": 41.1080524,
    "lng": 29.00721
  },
  {
    "main_genre": "E\u011fitim & Di\u011fer",
    "sub_genre": "Sergi",
    "photo_url": "https://www.biletix.com/static/images/live/event/eventimages/yaw01-andywarhol.png",
    "event_name": "Andy Warhol",
    "location": "Uniq Expo,\u0130stanbul",
    "date": "28 Mar 2020 Cmt 17:00",
    "price": "39.00 TL",
    "lat": 41.1080524,
    "lng": 29.00721
  },
  {
    "main_genre": "E\u011fitim & Di\u011fer",
    "sub_genre": "Sergi",
    "photo_url": "https://www.biletix.com/static/images/live/event/eventimages/yaw01-andywarhol.png",
    "event_name": "Andy Warhol",
    "location": "Uniq Expo,\u0130stanbul",
    "date": "29 Mar 2020 Paz 17:00",
    "price": "39.00 TL",
    "lat": 41.1080524,
    "lng": 29.00721
  },
  {
    "main_genre": "E\u011fitim & Di\u011fer",
    "sub_genre": "Sergi",
    "photo_url": "https://www.biletix.com/static/images/live/event/eventimages/ZYE01_etkgorseli.png",
    "event_name": "Mamut Art Project 2020",
    "location": "K\u00fc\u00e7\u00fck\u00c7iftlik Park,\u0130stanbul",
    "date": "aa",
    "price": "30.00 TL",
    "lat": 41.0430556,
    "lng": 28.9930556
  },
  {
    "main_genre": "E\u011fitim & Di\u011fer",
    "sub_genre": "Sosyal Sorumluluk",
    "photo_url": "https://www.biletix.com/static/images/live/event/eventimages/ggk_2020_3.png",
    "event_name": "Gelece\u011fin G\u00fc\u00e7l\u00fc Kad\u0131nlar\u0131 2020",
    "location": "Hilton Istanbul Convention & Exhibition Center,\u0130stanbul",
    "date": "aa",
    "price": "324.00 TL",
    "lat": 41.04449450000001,
    "lng": 28.9892063
  }
]